100 200 125
201 210 89
900 1000 174
10 1 20
999 111 179
1 999999 525
499 500 111
500 500 111
999999 999999 259
1 1 1
2 2 2
1 1000 179
1000 2000 182
3000 4000 238
4000 5000 215
6000 7000 262
7000 8000 252
9000 9999 260
10000 20000 279
20000 30000 308
7 7777 262
30000 40000 324
50000 70000 340
20 21 8
9999 1 262
999999 1 525
999999 888888 507
123123 321321 443
321321 123123 443
2 1 2
55 44 113
44 66 113
789123 921231 525
50 500 144
4004 2002 238
2 8 17
919191 191919 525
2 80000 351
4 613 144
88888 123 351
999999 999998 259
2223 222222 386
4546 4545 140
456 456 36
1 15 20
15 20 21
20 25 24
18 30 112
21 29 112
800 901 179
801 900 179
799 900 179
1 600 144
500 3000 217
2500 200 209
999999 40000 525
20000 68912 340
555 555555 470
42 1 112
876 543 179
888 888 73
5 900000 525
79 80 36
600 650 145
643 743 171
700 870 171
1001 2001 182
666 666 114
421 419 41
989 987 50
18181 92831 351
4423 1392 238
9892 10000 242
4536 3231 238
98291 99923 328
77 7777 262
99 99999 351
88 8887 262
88 88 18
88 87 31
88 89 31
88 999999 525
1739 17239 276
9987 7729 260
1092 2928 217
777 1 171
28283 99929 351
6656 8889 257
123 99098 351
23 77890 351
1 7733 262
5 8864 262
3 7729 262
99 9912 262
88273 2 351
8475 6 262
10383 7 262
7385 5 262
71823 74 340
17264 64 276
10293 8888 260
99812 12334 351
56283 81923 351
12738 89817 351
54627 88716 351
8882 17263 276
999666 444220 525
1209 9829 262
9873 12 262
10101 20 262
1242 241 182
77766 3343 351
581295 526901 452
414532 69610 449
366063 819439 509
940099 184137 525
147460 202251 383
732080 321568 509
213686 454268 449
247331 404281 441
865128 462267 525
99087 731873 509
127357 230519 386
379390 79173 443
758158 805396 468
239118 754050 509
55819 24013 340
128860 309683 443
714339 323025 509
955199 524141 525
206209 350246 443
684436 921866 525
721967 854899 525
556198 580944 421
172827 621326 470
755521 618413 509
696798 32832 509
934634 392735 525
74488 67767 325
808368 803612 406
335942 406003 441
184045 351253 443
46913 146298 375
822425 500245 509
423030 850730 525
803353 536339 509
415699 527626 470
593565 310098 470
524344 351633 470
823621 444881 509
436423 643150 509
295890 339394 384
722777 585430 509
698476 803382 504
347715 945680 525
223819 296433 443
591556 420986 470
675830 191132 509
974086 621166 525
499559 272277 449
147562 533614 470
801833 506198 509
194160 65046 383
821002 186701 509
626721 187522 509
378389 68138 443
263806 35050 443
813695 72495 509
75853 203249 383
999846 942353 458
69068 633567 509
314039 207644 443
361101 873844 525
333466 182095 443
503245 663991 509
207643 523487 470
680869 484739 509
874132 248496 525
476901 768158 509
169733 840952 525
365622 904283 525
465412 864850 525
316410 554932 470
610086 210839 470
292265 661527 509
801188 531537 509
677992 189694 509
930366 140549 525
656441 1364 509
904264 521054 525
384423 747676 509
176612 470172 449
815646 788037 468
186007 475451 449
727401 717847 411
169808 11039 383
522866 969650 525
172295 706909 509
694713 249233 509
612216 255796 470
459977 57012 449
387998 830532 509
780607 810303 468
400976 223740 443
262766 291999 407
506981 616261 470
417046 922717 525
464359 206831 449
453402 483843 444
1263 663328 509
972547 234672 525
774667 430675 509
