1 10 20
100 200 125
201 210 89
900 1000 174
5 200 125
100 210 125
1 1000 179
1 100 119
200 300 128
300 400 144
400 500 142
500 600 137
600 700 145
700 800 171
800 900 179
1 1 1
2 2 2
1 2 2
2 1 2
1 999999 525
500000 999999 525
27000 28000 259
160000 162000 370
18334 969311 525
81416 795034 509
64639 467359 449
11220 25024 282
900 940 174
850 880 179
750 780 153
320 330 144
58393 45784 340
485 490 142
128000 130000 344
950 970 143
23 50 112
620 645 132
6000 8000 262
645 650 145
700 705 171
310 320 131
555100 555200 346
800 850 135
770 775 153
1000 1 179
47000 48000 314
100 1 119
149 140 117
900 800 179
800 700 171
2342 15343 276
700 800 171
500 400 142
600 500 137
42 62 113
723811 877634 525
580980 379150 470
236580 558822 470
511968 10673 470
901394 819337 525
125486 91746 354
300 200 128
37000 38000 306
100 110 114
110 120 114
120 130 122
130 140 91
140 150 117
150 160 86
160 170 112
170 180 125
180 190 107
190 200 120
210 220 115
220 230 115
230 240 128
4440 4450 184
4450 4460 140
4460 4470 140
168000 170000 334
170000 172000 334
893 4019 238
592000 596000 328
596000 600000 372
35153 45615 324
18947 20615 274
987984 999999 440
12365 56321 340
23654 45632 324
789 987 179
456 654 145
123 321 131
7896 6987 239
7852 287 262
2589 2369 209
1452 1254 177
3256 3652 194
74587 78541 351
96541 14569 351
123654 456321 449
97419 651684 509
78 562 144
58741 69854 335
1793 3971 238
9317 9713 198
7139 7931 239
3179 3971 238
4268 4862 215
8426 8624 203
6248 6842 244
2486 2684 191
1181 3095 217
3466 4603 238
2090 2879 209
1904 3090 217
191 2303 183
1944 3737 238
2295 4772 238
1236 3155 217
1100 2113 182
3939 4484 215
236 2779 209
3295 4459 238
2211 3777 238
1868 4570 238
2592 3156 217
1164 3312 217
1675 4489 238
2804 3040 217
334 3260 217
402 1521 182
1538 4467 238
748 4204 238
392 2828 209
2517 3601 217
3205 4105 238
1929 2346 183
571 2058 182
2000 2042 157
1610 3851 238
1751 3440 217
608 2502 209
1700 4968 238
4425 4660 184
1967 4322 238
3338 434 217
2672 4880 238
824 1883 182
4168 353 238
558 1773 182
4352 1180 238
1038 4624 238
3982 2175 238
2051 374 182
1887 2700 209
1403 2236 183
1800 1738 180
3226 4392 238
3462 3527 181
1270 3498 217
2106 4634 238
3838 4480 215
2617 3871 238
1073 1267 182
3039 3952 238
2481 2374 209
4447 4623 184
1523 3893 238
2136 4434 238
3297 540 217
3828 4033 189
826 1699 182
36 2663 209
3467 1391 217
2123 118 182
561 4753 238
1822 2947 217
494 681 145
694 1147 179
108 2462 183
2829 1042 209
2491 2675 191
4011 1271 238
218 2780 209
4111 4725 215
1549 1334 172
3687 2487 217
1750 258 182
4716 4881 197
4199 2019 238
3065 59 217
3216 1702 217
784 3624 217
2459 116 183
4423 3100 238
3535 4937 238
4941 4010 215
2766 1784 209
2985 1805 217
3686 998 217
4213 377 238
2669 2269 209
701 4165 238
1861 2958 217
127 464 144
3666 2968 199
3321 1381 217
2476 957 209
3299 4455 238
4174 732 238
1075 2347 183
1167 3042 217
2960 2150 217
1016 3402 217
4827 139 238
1154 3892 238
1874 543 182
329 4353 238
113 1199 182
1641 602 182
1812 1132 182
3576 4953 238
