76220 667748 509
83434 697593 509
46977 98223 351
82686 16068 351
54976 495491 449
72872 846263 525
2113 956607 525
94739 109124 354
74588 24482 340
39855 248733 443
2670 364386 443
14071 668500 509
39056 654700 509
41824 127656 354
84193 766473 509
33205 751426 509
68216 539455 470
5565 157046 383
98463 417637 449
11463 936818 525
50189 757301 509
75516 634451 509
3974 197145 383
74785 818383 509
25602 170128 383
11527 585777 470
92015 403857 443
33101 438962 449
87516 632719 509
31394 968721 525
54442 228471 386
57551 950567 525
70227 688907 509
37369 785276 509
23599 429546 449
7664 864466 525
93881 805513 509
57125 116667 354
45863 509580 449
88327 258055 443
50675 857992 525
63857 715385 509
1456 74502 340
8874 143347 375
69302 808902 509
76341 78096 351
54906 239828 443
65940 613649 470
55286 645889 509
65426 680624 509
24227 592882 470
13879 974527 525
10288 848534 525
55716 856544 525
37669 492425 449
63809 340814 443
82704 678285 509
80612 302911 443
90461 430794 449
7715 160249 383
33566 931879 525
34999 762957 509
35072 279935 443
55341 277831 443
88557 771127 509
27773 900207 525
10705 181369 383
66620 160457 383
88548 177701 383
81788 298710 443
80834 383929 443
29657 831654 509
76072 850422 525
12301 884236 525
67873 538370 470
66975 663682 509
37171 347045 443
94555 347224 443
96583 976165 525
27830 705258 509
42891 190520 383
86429 740111 509
93741 345906 443
24221 990400 525
23020 493870 449
78832 850285 525
71067 48374 340
60269 356195 443
18457 609255 470
29393 728655 509
24399 883637 525
73330 304533 443
96886 450203 449
52737 387339 443
50629 548333 470
38521 188734 383
55280 895930 525
30792 688363 509
46706 719216 509
67536 523462 470
23342 208205 383
81519 499005 449
15128 728191 509
33639 565251 470
69937 758261 509
30853 479059 449
29861 259685 443
73026 605942 470
77192 459513 449
14271 195104 383
14566 76915 340
68046 738251 509
7985 312410 443
95595 935848 525
89045 405809 443
73791 283998 443
46273 785222 509
18650 837932 525
50290 600334 470
40902 354121 443
69535 926341 525
50546 835835 509
10393 485945 449
81211 287518 443
75097 125498 354
95954 585240 470
97837 429958 449
86364 699059 509
17587 403542 443
39902 37378 306
23949 262220 443
68652 712729 509
86620 153333 375
71385 131522 354
95686 468995 449
9098 802853 509
33725 82847 351
32405 961006 525
51714 566623 470
81564 431390 449
58854 83838 351
12394 662268 509
28231 908846 525
2895 972482 525
12570 899153 525
58400 196438 383
75068 719698 509
16564 8647 276
90847 365891 443
84957 827405 509
23785 637911 509
62529 642956 509
7733 682 262
33299 999607 525
87114 759066 509
19143 110137 354
13206 917147 525
19037 400950 443
38577 625038 470
8389 457876 449
48650 44812 314
53975 936519 525
37496 527723 470
28791 842399 525
58875 483320 449
5093 469245 449
98606 697272 509
63349 327032 443
75184 610116 470
37214 82614 351
65889 732533 509
56575 48622 340
89801 642678 509
78125 656298 509
90582 969439 525
31420 557760 470
51613 627493 509
3022 684731 509
79302 138771 354
38562 712123 509
31652 576671 470
64289 868586 525
35689 371815 443
35811 177494 383
11686 747303 509
92385 745319 509
1821 917709 525
6031 966221 525
98774 932798 525
61489 385628 443
62970 877824 525
37303 511790 449
94683 234838 443
23902 717748 509
54961 399975 443
61398 172573 383
72887 431863 449
15616 60750 340
3227 505125 449
90111 261535 443
46656 133285 354
98528 245221 443
97505 245427 443
67515 160203 383
23741 822194 509
79456 883051 525
66998 918782 525
15460 353427 443
39938 403012 443
48727 34988 324
85562 437360 449
15938 874472 525
92365 172690 383
79815 645005 509
81000 258907 443
16411 962672 525
64247 240927 443
29708 18136 308
77887 399878 443
84895 226321 386
28603 795415 509
61893 393809 443
51282 501567 449
73370 944543 525
90743 902586 525
27359 974602 525
66411 28157 340
92964 739578 509
48008 780150 509
28115 725608 509
44417 914825 525
39165 298579 443
41333 805299 509
88776 166600 383
62361 805842 509
77118 790527 509
98245 827737 509
37061 722902 509
27608 111275 354
71870 577723 470
31262 69574 340
23887 498168 449
47765 227257 386
47128 594240 470
40645 347325 443
31034 448164 449
60575 56412 317
21368 456885 449
55032 509407 449
90149 271602 443
