230018 640305 509
840660 573569 525
823010 972818 525
281980 149973 443
763041 328232 509
68872 877345 525
2477 269537 443
865546 345497 525
141020 96797 354
827005 602473 509
950121 453932 525
516913 700701 509
669165 545691 509
402648 648850 509
402901 52981 443
768087 104778 509
310237 988937 525
615094 338569 470
289255 553770 470
56506 748535 509
22892 837832 525
335975 47135 443
447866 192565 449
233958 420704 449
671966 306301 509
49587 590791 470
605988 272883 470
983877 59344 525
275639 586849 470
335195 474733 449
580966 71521 470
932224 259919 525
837516 763114 468
560758 691574 509
188926 338739 443
477553 946708 525
331417 541582 470
737955 738647 349
385364 927411 525
160683 256655 443
176715 106607 383
772608 847346 525
68685 668039 509
715921 700404 504
32307 991605 525
846010 651946 525
951817 856663 507
547546 621791 447
567740 233700 470
470740 138641 449
618404 856590 525
686743 22392 509
826519 430339 509
802941 564554 509
244340 582540 470
962122 324998 525
44238 457080 449
868783 854743 388
186147 938977 525
796230 57809 509
877083 117098 525
591832 57792 470
442372 399449 449
234938 896809 525
18805 349304 443
282681 721477 509
863671 908070 445
243538 479056 449
453439 544667 470
406196 34518 443
509747 41906 449
687283 313698 509
729719 987932 525
696001 39833 509
355768 182016 443
810013 742303 468
354712 798774 509
642969 26860 509
696728 228530 509
943548 805687 525
517893 951711 525
754414 275980 509
366600 745219 509
800527 497073 509
495471 956387 525
662280 99147 509
623462 668595 509
20938 848409 525
396884 313100 441
861458 796011 525
516831 569390 452
291984 864338 525
47834 75481 340
873443 594803 525
710101 964572 525
163172 974699 525
874094 294586 525
183784 904216 525
910958 115913 525
206447 707995 509
342127 314459 384
113845 710406 509
7041 496560 449
156811 915124 525
848993 92888 525
77143 677486 509
941600 602853 525
75500 972725 525
988840 302780 525
682376 535915 509
359577 887276 525
344433 581122 470
168545 861722 525
55720 612969 470
973664 180701 525
206175 927912 525
922820 742150 525
209328 574557 470
976132 237982 525
846518 742406 525
939878 822706 525
732036 601945 509
554301 266677 470
875299 805342 525
336058 801346 509
758358 986704 525
351597 761946 509
330319 631796 509
655902 613818 509
654681 435467 509
591407 12612 470
198745 422582 449
344207 138779 443
642067 392230 509
515084 129456 470
90028 218997 386
610004 177355 470
325014 990364 525
175222 663615 509
906041 226672 525
685993 543341 509
59514 833281 509
518093 305940 470
200205 434688 449
569205 56741 470
946434 567226 525
670468 914090 525
580939 730587 509
469265 23521 449
132807 933785 525
677650 825932 504
636174 452218 509
39950 334103 443
786539 452590 509
60680 554359 470
345569 746044 509
397615 883845 525
9174 50947 324
30069 17100 308
153253 821349 509
378990 582860 470
331011 147506 443
925518 676325 525
57542 549982 470
71957 4693 340
545753 348412 470
694637 472315 509
687487 645653 442
642498 565729 509
717867 997711 525
254926 902852 525
19766 900435 525
134209 752302 509
125513 597438 470
991913 923341 507
505321 120046 449
183041 98124 383
201830 499728 449
9079 813160 509
829637 113685 509
515657 321168 470
770424 76753 509
193043 265915 443
35709 194972 383
568443 66146 470
620395 760657 509
764470 431009 509
620403 38917 470
147136 723998 509
718996 585885 509
368242 679981 509
310862 691738 509
729846 252083 509
404384 386575 436
454307 912542 525
553337 657278 509
737456 767842 424
521493 456663 470
66923 42258 340
467606 415110 444
11173 783700 509
634293 167863 509
618189 207763 470
376048 108125 443
611194 259378 470
986385 362375 525
645615 299390 509
176560 14850 383
450140 365037 449
35118 923607 525
414216 277710 449
243527 581465 470
398534 656033 509
730625 609020 509
949109 478965 525
221965 811162 509
914366 297806 525
8863 146071 375
296091 160437 443
122076 623388 470
662930 499169 509
480412 409343 449
738453 247193 509
62791 628884 509
164777 866357 525
346847 905044 525
800010 266368 509
367557 69700 443
828050 457542 509
158927 854629 525
813810 217210 509
243423 222601 443
974009 829719 525
541790 527655 408
61784 265924 443
393195 904891 525
439607 235698 449
810212 198191 509
149141 136635 375
664971 362438 509
858336 323809 525
428313 357373 449
301805 407327 441
82957 785690 509
671444 408430 509
698615 206790 509
576486 284486 470
633126 708074 504
324349 113141 443
546539 81096 470
955663 922672 507
317311 341166 384
525267 679671 509
903424 913195 476
973121 429377 525
243366 488874 449
167871 856240 525
608767 263772 470
668274 321453 509
635911 19436 509
372354 761199 509
526426 723417 509
397404 574668 470
298288 511970 470
468574 863475 525
583781 6063 470
418421 218522 449
450344 537517 470
584413 768822 509
681031 360188 509
923211 126198 525
667425 58429 509
349711 879805 525
651025 155609 509
227600 933117 525
373647 207567 443
587602 273950 470
792546 435852 509
70843 10983 340
525170 676831 509
428502 317749 449
995879 326387 525
456885 12163 449
519200 881806 525
68550 350766 443
177549 690955 509
765701 655420 504
597678 502555 470
177636 96754 383
952432 591067 525
451264 45927 449
208211 445935 449
370155 218971 443
689171 262799 509
529291 126618 470
697914 279094 509
201906 812362 509
120836 804190 509
265053 25645 443
973315 603002 525
486296 139147 449
116874 691080 509
159179 727242 509
365723 528185 470
908703 116805 525
746088 102194 509
676433 742876 504
321144 593690 470
120915 30138 354
912965 521615 525
641982 692978 442
41765 33225 324
138046 310133 443
281175 580962 470
738768 346611 509
273270 312920 389
374341 98432 443
175137 338441 443
447823 996622 525
361080 635660 509
449210 465069 444
773950 232254 509
922952 248791 525
573589 273638 470
470784 761223 509
65435 404193 443
578069 810116 509
433221 320287 449
150237 459089 449
127300 254513 443
573820 614195 434
799923 351629 509
965971 830 525
381454 374538 423
387743 185637 443
862763 560965 525
869847 103157 525
30693 78050 351
561107 649975 509
452533 223180 449
870715 911451 476
844580 250864 525
476485 437270 444
73183 217620 386
679435 442903 509
642349 173052 509
413967 510718 444
715898 511361 509
276632 818782 509
482560 530658 470
786697 748007 468
947748 46407 525
450111 652915 509
508549 307958 449
524890 284105 470
570630 759050 509
459514 764603 509
651091 591416 509
928355 353037 525
378286 673379 509
531128 83640 470
726733 326682 509
866632 452234 525
863683 759942 525
414252 856015 525
894800 480846 525
412560 720840 509
424359 152410 449
782548 907413 525
355698 498616 449
86771 434332 449
237209 904127 525
220980 844987 525
329994 542002 470
129434 306383 443
432206 66229 449
721435 507409 509
122046 673464 509
844004 854835 419
16913 325648 443
784374 488372 509
774515 455361 509
295543 13998 443
801566 803836 406
644478 290652 509
493900 820628 509
194953 236721 443
54029 312014 443
591658 174216 470
99434 743713 509
658445 606431 509
481430 836016 509
165681 24757 383
901785 911116 476
40429 521052 470
593226 133911 470
495006 405758 449
842711 562573 525
191483 426058 449
368131 467268 449
