1 10 20
100 200 125
201 210 89
900 1000 174
345301 161362 443
899621 194432 525
684360 954964 525
64691 127980 354
72211 21640 340
154542 303623 443
241374 556425 470
591244 260182 470
37271 955439 525
738330 773284 468
465053 114233 449
337503 455777 449
767626 461795 509
286526 549361 470
21881 780859 509
26112 781670 509
791403 760744 468
934167 442942 525
512811 977854 525
803897 478063 509
769459 614932 509
977324 297174 525
866553 61033 525
25294 986775 525
207583 628009 509
250829 297137 407
949643 953082 414
552225 672423 509
523879 601114 452
616638 566281 447
85658 291426 443
621897 101962 470
659561 185553 509
484910 758894 509
933491 349204 525
943810 515698 525
89125 569850 470
719557 42799 509
227371 312677 443
813051 35748 509
574061 60791 470
311416 607258 470
303008 85223 443
100871 21802 351
171270 580350 470
909290 104360 525
961026 560524 525
242682 377477 441
511343 607119 470
467994 875869 525
868409 340243 525
1008 876610 525
225629 479285 449
796405 320484 509
449524 430796 400
395299 444003 449
657590 700403 442
837842 444220 525
807395 913805 525
884339 623934 525
863782 339676 525
131304 98568 354
811815 608481 509
831280 649303 504
930110 708399 525
594681 456550 470
151380 163522 383
318638 43013 443
652258 839545 525
226455 963688 525
594789 123408 470
284842 378717 441
967413 264165 525
463397 719521 509
287651 601316 470
651168 858090 525
778253 822644 468
931373 276931 525
546069 165772 470
546272 566828 452
347085 715498 509
191639 242804 443
821882 148133 509
840945 682245 525
279942 876519 525
996723 962559 458
407497 285704 441
335675 530826 470
890255 170993 525
527511 662972 509
809146 564783 509
239288 793031 509
802619 451429 509
491330 179728 449
524724 25290 470
168130 318310 443
587648 483746 470
61613 925253 525
587106 938266 525
564642 238249 470
479801 473094 382
556710 388156 470
483045 268681 449
293007 87412 443
65008 402188 443
644994 819598 504
695957 637388 442
889912 863991 445
976274 418489 525
512888 213038 470
987150 649003 525
281860 103896 443
958449 517583 525
274517 551418 470
742173 947433 525
483194 956157 525
522854 864205 525
232239 142503 443
119246 542484 470
472931 417052 444
185310 917852 525
192628 390233 443
769928 631003 504
13185 707425 509
600710 923183 525
914690 365535 525
946912 103159 525
744922 97487 509
278233 386877 441
89153 485540 449
837193 852793 525
432645 767062 509
820965 565154 509
568962 342129 470
590073 197387 470
308640 100902 443
108152 631841 509
156977 57838 383
191673 153971 383
811466 637553 504
985833 881420 507
829285 1323 509
112172 749619 509
239579 567372 470
309955 245477 407
828745 799929 450
372602 96908 443
158420 423422 449
84650 908550 525
281571 449829 449
342148 83868 443
638624 18719 509
116512 999143 525
152279 299159 443
776072 594800 509
401004 868392 525
983107 246744 525
343737 988898 525
698660 464511 509
428646 136492 449
611621 205215 470
78747 886521 525
482834 314791 449
334573 443875 449
162255 978000 525
221218 865362 525
127587 297601 443
575278 82634 470
16035 851901 525
355324 841045 525
568155 3738 470
614085 895158 525
799164 776304 468
451572 672514 509
868784 776446 525
180636 6816 383
593693 338348 470
705025 361066 509
862022 529164 525
602181 277748 470
943829 740502 525
675487 970137 525
581837 115928 470
740079 358626 509
905925 614951 525
421776 803451 509
646393 617585 509
601287 347344 470
307532 86999 443
295079 550093 470
45555 795806 509
947269 637891 525
414164 717198 509
940080 964780 414
755351 582669 509
178963 586420 470
535859 769447 509
644515 458066 509
608854 847746 525
648008 88005 509
71647 325879 443
635554 45316 509
597753 643933 509
117155 529293 470
851470 730435 525
157630 627230 509
919155 499528 525
633762 637516 416
432294 704132 509
819300 773047 468
271244 183472 443
665172 376049 509
241603 954820 525
938043 502913 525
650942 873887 525
936546 670963 525
564326 796189 509
46555 940195 525
62460 794751 509
873872 897828 445
442846 118480 449
711479 29207 509
147 806508 509
153519 577376 470
996357 417218 525
997770 993394 365
248439 459904 449
275025 229403 443
179808 84224 383
635342 594194 509
723687 649279 504
195201 103008 383
562208 118126 470
275756 580774 470
268299 984929 525
634429 354827 509
7899 566818 470
157278 280017 443
60404 152759 375
989511 90690 525
76308 580426 470
703225 205204 509
855989 636436 525
63803 48994 340
848432 231453 525
254016 591436 470
654577 211313 509
738195 42486 509
287348 738759 509
998273 846287 507
806313 556479 509
494772 839719 525
426511 991748 525
524529 84935 470
458807 597478 470
905098 821927 525
693307 701376 367
413949 59865 449
547109 835366 509
842709 969625 507
464770 791053 509
861208 588810 525
897545 263404 525
633307 120560 509
144050 808423 509
419232 454704 418
252121 182852 443
441515 556196 470
873825 815003 525
678701 878944 525
999377 739187 525
342278 211113 443
325743 831689 509
946007 457056 525
951834 268111 525
435395 839426 525
302174 577429 470
742466 298311 509
